{
    "blockly": false,
    "blockly_xml": "<xml></xml>",
    "category": "Uncategorized",
    "coa": {
        "data": {
            "clean": true,
            "code_block": "",
            "description": "",
            "hash": "af7993b35421caa4e80ea6cfa79b85912df3bbb2",
            "joint": {
                "cells": [
                    {
                        "0": "S",
                        "1": "T",
                        "2": "A",
                        "3": "R",
                        "4": "T",
                        "active": false,
                        "angle": 0,
                        "attrs": {
                            ".background": {
                                "fill": "#000000",
                                "stroke": "#5C6773"
                            },
                            ".color-band": {
                                "fill": "#3C444D"
                            },
                            ".outPorts>.port-out": {
                                "ref": ".background",
                                "ref-x": 0.5
                            },
                            ".outPorts>.port-out>.port-body": {
                                "port": {
                                    "id": "out",
                                    "type": "out"
                                }
                            },
                            ".title": {
                                "ref-x": 33,
                                "ref-y": 8,
                                "text": "START"
                            },
                            "g.delete": {
                                "display": "none"
                            },
                            "g.error": {
                                "opacity": 0
                            },
                            "g.icon image": {
                                "ref-x": 13,
                                "xlink:href": "/inc/coa/img/block_icon_start.svg"
                            },
                            "g.notes": {
                                "display": "block"
                            }
                        },
                        "block_code": "def on_start(container):\n    phantom.debug('on_start() called')\n    \n    # call 'destinationAddress_check' block\n    destinationAddress_check(container=container)\n\n    return",
                        "callback_code": "# read-only block view not available",
                        "callback_start": 1,
                        "callsback": false,
                        "connected_to_start": true,
                        "connection_name": "",
                        "connection_type": "",
                        "custom_callback": "",
                        "custom_code": "",
                        "custom_join": "",
                        "custom_name": "",
                        "description": "",
                        "has_custom": false,
                        "has_custom_block": false,
                        "has_custom_callback": false,
                        "has_custom_join": false,
                        "id": "375fc8f6-ba5c-4119-8ab5-e1112729ff56",
                        "inPorts": [],
                        "join_code": "# read-only block view not available",
                        "join_optional": [],
                        "join_start": 1,
                        "line_end": 16,
                        "line_start": 8,
                        "name": "",
                        "notes": "",
                        "number": 0,
                        "order": 1,
                        "outPorts": [
                            "out"
                        ],
                        "ports": {
                            "groups": {
                                "in": {
                                    "attrs": {
                                        ".port-body": {
                                            "fill": "#fff",
                                            "magnet": true,
                                            "r": 10,
                                            "stroke": "#000"
                                        },
                                        ".port-label": {
                                            "fill": "#000"
                                        }
                                    },
                                    "label": {
                                        "position": {
                                            "args": {
                                                "y": 10
                                            },
                                            "name": "left"
                                        }
                                    },
                                    "position": {
                                        "name": "left"
                                    }
                                },
                                "out": {
                                    "attrs": {
                                        ".port-body": {
                                            "fill": "#fff",
                                            "magnet": true,
                                            "r": 10,
                                            "stroke": "#000"
                                        },
                                        ".port-label": {
                                            "fill": "#000"
                                        }
                                    },
                                    "label": {
                                        "position": {
                                            "args": {
                                                "y": 10
                                            },
                                            "name": "right"
                                        }
                                    },
                                    "position": {
                                        "name": "right"
                                    }
                                }
                            }
                        },
                        "position": {
                            "x": 100,
                            "y": 100
                        },
                        "previous_function": "",
                        "previous_name": "",
                        "show_number": true,
                        "size": {
                            "height": 54,
                            "width": 80
                        },
                        "state": "start",
                        "status": "",
                        "title": "START",
                        "type": "coa.StartEnd",
                        "warn": false,
                        "z": 1
                    },
                    {
                        "0": "E",
                        "1": "N",
                        "2": "D",
                        "active": false,
                        "angle": 0,
                        "attrs": {
                            ".background": {
                                "fill": "#000000",
                                "stroke": "#5C6773"
                            },
                            ".color-band": {
                                "fill": "#3C444D"
                            },
                            ".inPorts>.port-in": {
                                "ref": ".background",
                                "ref-x": 0.5
                            },
                            ".inPorts>.port-in>.port-body": {
                                "port": {
                                    "id": "in",
                                    "type": "in"
                                }
                            },
                            ".title": {
                                "text": "END"
                            },
                            "g.delete": {
                                "display": "none"
                            },
                            "g.error": {
                                "opacity": 0
                            },
                            "g.icon image": {
                                "xlink:href": "/inc/coa/img/block_icon_end.svg"
                            },
                            "g.notes": {
                                "display": "block"
                            }
                        },
                        "block_code": "def on_finish(container, summary):\n    phantom.debug('on_finish() called')\n    # This function is called after all actions are completed.\n    # summary of all the action and/or all detals of actions \n    # can be collected here.\n\n    # summary_json = phantom.get_summary()\n    # if 'result' in summary_json:\n        # for action_result in summary_json['result']:\n            # if 'action_run_id' in action_result:\n                # action_results = phantom.get_action_results(action_run_id=action_result['action_run_id'], result_data=False, flatten=False)\n                # phantom.debug(action_results)\n\n    return",
                        "callback_code": "# read-only block view not available",
                        "callback_start": 1,
                        "callsback": false,
                        "connected_to_start": true,
                        "connection_name": "",
                        "connection_type": "",
                        "custom_callback": "",
                        "custom_code": "",
                        "custom_join": "",
                        "custom_name": "",
                        "description": "",
                        "has_custom": false,
                        "has_custom_block": false,
                        "has_custom_callback": false,
                        "has_custom_join": false,
                        "id": "bc24ef88-473f-4107-a927-00149fd04d07",
                        "inPorts": [
                            "in"
                        ],
                        "join_code": "# read-only block view not available",
                        "join_optional": [],
                        "join_start": 1,
                        "line_end": 67,
                        "line_start": 54,
                        "name": "",
                        "notes": "",
                        "number": 0,
                        "order": 4,
                        "outPorts": [],
                        "ports": {
                            "groups": {
                                "in": {
                                    "attrs": {
                                        ".port-body": {
                                            "fill": "#fff",
                                            "magnet": true,
                                            "r": 10,
                                            "stroke": "#000"
                                        },
                                        ".port-label": {
                                            "fill": "#000"
                                        }
                                    },
                                    "label": {
                                        "position": {
                                            "args": {
                                                "y": 10
                                            },
                                            "name": "left"
                                        }
                                    },
                                    "position": {
                                        "name": "left"
                                    }
                                },
                                "out": {
                                    "attrs": {
                                        ".port-body": {
                                            "fill": "#fff",
                                            "magnet": true,
                                            "r": 10,
                                            "stroke": "#000"
                                        },
                                        ".port-label": {
                                            "fill": "#000"
                                        }
                                    },
                                    "label": {
                                        "position": {
                                            "args": {
                                                "y": 10
                                            },
                                            "name": "right"
                                        }
                                    },
                                    "position": {
                                        "name": "right"
                                    }
                                }
                            }
                        },
                        "position": {
                            "x": 640,
                            "y": 100
                        },
                        "previous_function": "",
                        "previous_name": "",
                        "show_number": true,
                        "size": {
                            "height": 54,
                            "width": 80
                        },
                        "state": "end",
                        "status": "",
                        "title": "END",
                        "type": "coa.StartEnd",
                        "warn": false,
                        "z": 2
                    },
                    {
                        "attrs": {
                            ".connection": {
                                "stroke": "#6C7A89",
                                "stroke-width": 2
                            },
                            ".marker-target": {
                                "d": "M 10 0 L 0 5 L 10 10 z",
                                "fill": "#6a6c8a",
                                "stroke": "#6a6c8a"
                            }
                        },
                        "connector": {
                            "args": {
                                "radius": 5
                            },
                            "name": "rounded"
                        },
                        "endDirections": [
                            "left"
                        ],
                        "id": "718baab8-28a2-44e3-830d-aef7824ae102",
                        "router": {
                            "name": "metro"
                        },
                        "source": {
                            "id": "375fc8f6-ba5c-4119-8ab5-e1112729ff56",
                            "port": null,
                            "selector": "g:nth-child(1) > g:nth-child(2) > g:nth-child(1) > circle:nth-child(1)"
                        },
                        "startDirections": [
                            "right"
                        ],
                        "target": {
                            "id": "b6079113-23d4-4dbd-9283-3f7d6909ae27",
                            "selector": ".port-body[type=\"input\"]"
                        },
                        "type": "link",
                        "z": 3
                    },
                    {
                        "attrs": {
                            ".connection": {
                                "stroke": "#6C7A89",
                                "stroke-width": 2
                            },
                            ".marker-target": {
                                "d": "M 10 0 L 0 5 L 10 10 z",
                                "fill": "#6a6c8a",
                                "stroke": "#6a6c8a"
                            }
                        },
                        "connector": {
                            "args": {
                                "radius": 5
                            },
                            "name": "rounded"
                        },
                        "endDirections": [
                            "left"
                        ],
                        "id": "2d7f0afb-b33d-4691-a5c8-d85bc3d43315",
                        "router": {
                            "name": "metro"
                        },
                        "source": {
                            "id": "b6079113-23d4-4dbd-9283-3f7d6909ae27",
                            "port": "out-1",
                            "selector": "g:nth-child(1) > g:nth-child(2) > g:nth-child(1) > circle:nth-child(1)"
                        },
                        "startDirections": [
                            "right"
                        ],
                        "target": {
                            "id": "01fd9487-44b2-4aa0-ad39-1102beb0f69a",
                            "selector": ".port-body[type=\"input\"]"
                        },
                        "type": "link",
                        "z": 6
                    },
                    {
                        "action": "geolocate ip",
                        "action_type": "investigate",
                        "active": false,
                        "active_keys": {},
                        "active_values": {
                            "ip": "filtered-data:filter_1:condition_1:artifact:*.cef.destinationAddress"
                        },
                        "angle": 0,
                        "app": "MaxMind",
                        "appid": "c566e153-3118-4033-abda-14dd9748c91a",
                        "approver": "",
                        "assets": [
                            {
                                "action": "geolocate ip",
                                "actions": [
                                    "geolocate ip"
                                ],
                                "active": true,
                                "app_name": "MaxMind",
                                "app_version": "1.2.22",
                                "appid": "c566e153-3118-4033-abda-14dd9748c91a",
                                "asset_name": "maxmind",
                                "config_type": "asset",
                                "count": 0,
                                "fields": {
                                    "ip": "filtered-data:destinationAddress_check:condition_1:artifact:*.cef.destinationAddress"
                                },
                                "has_app": true,
                                "id": 2,
                                "loaded": false,
                                "missing": false,
                                "name": "maxmind",
                                "output": [
                                    {
                                        "data_path": "action_result.status",
                                        "data_type": "string"
                                    },
                                    {
                                        "data_path": "action_result.message",
                                        "data_type": "string"
                                    },
                                    {
                                        "data_path": "action_result.data.*.continent_name",
                                        "data_type": "string"
                                    },
                                    {
                                        "data_path": "action_result.data.*.country_iso_code",
                                        "data_type": "string"
                                    },
                                    {
                                        "data_path": "action_result.data.*.country_name",
                                        "data_type": "string",
                                        "map_info": "Country"
                                    },
                                    {
                                        "data_path": "action_result.data.*.latitude",
                                        "data_type": "numeric",
                                        "map_info": "latitude"
                                    },
                                    {
                                        "data_path": "action_result.data.*.longitude",
                                        "data_type": "numeric",
                                        "map_info": "longitude"
                                    },
                                    {
                                        "contains": [
                                            "ip"
                                        ],
                                        "data_path": "action_result.parameter.ip",
                                        "data_type": "string",
                                        "map_info": "IP Address"
                                    },
                                    {
                                        "contains": [
                                            "ip"
                                        ],
                                        "data_path": "action_result.parameter.ip",
                                        "data_type": "string",
                                        "map_info": "name"
                                    },
                                    {
                                        "data_path": "action_result.data.*.city_name",
                                        "data_type": "string",
                                        "map_info": "City"
                                    },
                                    {
                                        "data_path": "action_result.data.*.postal_code",
                                        "data_type": "string",
                                        "map_info": "Postal Code"
                                    },
                                    {
                                        "data_path": "action_result.data.*.as_org",
                                        "data_type": "string",
                                        "map_info": "Organization"
                                    },
                                    {
                                        "data_path": "action_result.data.*.state_iso_code",
                                        "data_type": "string"
                                    },
                                    {
                                        "data_path": "action_result.data.*.state_name",
                                        "data_type": "string",
                                        "map_info": "State/Province"
                                    },
                                    {
                                        "data_path": "action_result.data.*.time_zone",
                                        "data_type": "string"
                                    },
                                    {
                                        "data_path": "summary.total_objects",
                                        "data_type": "numeric"
                                    },
                                    {
                                        "data_path": "summary.total_objects_successful",
                                        "data_type": "numeric"
                                    }
                                ],
                                "parameters": {
                                    "ip": {
                                        "allow_list": true,
                                        "contains": [
                                            "ip"
                                        ],
                                        "data_type": "string",
                                        "default": null,
                                        "description": "IP to geolocate",
                                        "key": "ip",
                                        "primary": true,
                                        "required": true
                                    }
                                },
                                "product_name": "GeoIP2",
                                "product_vendor": "MaxMind",
                                "targets": "2",
                                "type": "information"
                            }
                        ],
                        "attrs": {
                            ".action": {
                                "text": "geolocate ip"
                            },
                            ".background": {
                                "fill": "#000000",
                                "stroke": "#5C6773"
                            },
                            ".color-band": {
                                "fill": "#3C444D"
                            },
                            ".inPorts>.port-in": {
                                "ref": ".background",
                                "ref-x": 0.5
                            },
                            ".inPorts>.port-in>.port-body": {
                                "port": {
                                    "id": "in",
                                    "type": "in"
                                }
                            },
                            ".message": {
                                "opacity": 0,
                                "ref-x": 5,
                                "ref-y": 105,
                                "text": "Configuring now"
                            },
                            ".outPorts>.port-out": {
                                "ref": ".background",
                                "ref-x": 0.5
                            },
                            ".outPorts>.port-out>.port-body": {
                                "port": {
                                    "id": "out",
                                    "type": "out"
                                }
                            },
                            ".title": {
                                "text": "Investigate"
                            },
                            "g.delete": {
                                "display": "none"
                            },
                            "g.error": {
                                "opacity": 0
                            },
                            "g.icon image": {
                                "xlink:href": "/inc/coa/img/block_icon_investigate.svg"
                            },
                            "g.notes": {
                                "display": "block"
                            }
                        },
                        "block_code": "def geolocate_ip_1(action=None, success=None, container=None, results=None, handle=None, filtered_artifacts=None, filtered_results=None):\n    phantom.debug('geolocate_ip_1() called')\n\n    # collect data for 'geolocate_ip_1' call\n    filtered_artifacts_data_1 = phantom.collect2(container=container, datapath=['filtered-data:destinationAddress_check:condition_1:artifact:*.cef.destinationAddress', 'filtered-data:destinationAddress_check:condition_1:artifact:*.id'])\n\n    parameters = []\n    \n    # build parameters list for 'geolocate_ip_1' call\n    for filtered_artifacts_item_1 in filtered_artifacts_data_1:\n        if filtered_artifacts_item_1[0]:\n            parameters.append({\n                'ip': filtered_artifacts_item_1[0],\n                # context (artifact id) is added to associate results with the artifact\n                'context': {'artifact_id': filtered_artifacts_item_1[1]},\n            })\n\n    phantom.act(\"geolocate ip\", parameters=parameters, assets=['maxmind'], name=\"geolocate_ip_1\")\n\n    return",
                        "callback_code": "",
                        "callback_start": 1,
                        "callsback": true,
                        "color": "",
                        "connected_to_start": true,
                        "connection_name": "",
                        "connection_type": "",
                        "custom_callback": "",
                        "custom_code": "",
                        "custom_join": "",
                        "custom_name": "",
                        "delay": 0,
                        "description": "",
                        "has_custom": false,
                        "has_custom_block": false,
                        "has_custom_callback": false,
                        "has_custom_join": false,
                        "id": "01fd9487-44b2-4aa0-ad39-1102beb0f69a",
                        "inPorts": [
                            "in"
                        ],
                        "join_code": "",
                        "join_optional": [],
                        "join_start": 1,
                        "line_end": 54,
                        "line_start": 33,
                        "message": "Configuring now",
                        "name": "geolocate ip",
                        "notes": "",
                        "number": 1,
                        "order": 3,
                        "outPorts": [
                            "out"
                        ],
                        "ports": {
                            "groups": {
                                "in": {
                                    "attrs": {
                                        ".port-body": {
                                            "fill": "#fff",
                                            "magnet": true,
                                            "r": 10,
                                            "stroke": "#000"
                                        },
                                        ".port-label": {
                                            "fill": "#000"
                                        }
                                    },
                                    "label": {
                                        "position": {
                                            "args": {
                                                "y": 10
                                            },
                                            "name": "left"
                                        }
                                    },
                                    "position": {
                                        "name": "left"
                                    }
                                },
                                "out": {
                                    "attrs": {
                                        ".port-body": {
                                            "fill": "#fff",
                                            "magnet": true,
                                            "r": 10,
                                            "stroke": "#000"
                                        },
                                        ".port-label": {
                                            "fill": "#000"
                                        }
                                    },
                                    "label": {
                                        "position": {
                                            "args": {
                                                "y": 10
                                            },
                                            "name": "right"
                                        }
                                    },
                                    "position": {
                                        "name": "right"
                                    }
                                }
                            }
                        },
                        "position": {
                            "x": 400,
                            "y": 80
                        },
                        "previous_function": "",
                        "previous_name": "geolocate_ip_1",
                        "required_params": {
                            "ip": true
                        },
                        "reviewer": "",
                        "show_number": false,
                        "size": {
                            "height": 100,
                            "width": 180
                        },
                        "state": "app_action_assets",
                        "status": "",
                        "title": "Investigate",
                        "type": "coa.Action",
                        "warn": "",
                        "z": 10
                    },
                    {
                        "active": false,
                        "angle": 0,
                        "attrs": {
                            ".background": {
                                "fill": "#000000",
                                "stroke": "#5C6773",
                                "transform": "rotate(45 30 70)"
                            },
                            ".inPorts>.port-0>.port-body": {
                                "port": {
                                    "id": "in",
                                    "type": "in"
                                }
                            },
                            ".number": {
                                "text": 1
                            },
                            ".outPorts>.port-0": {
                                "port": {
                                    "id": "out-1",
                                    "type": "out"
                                },
                                "ref-x": 83,
                                "ref-y": 40
                            },
                            ".outPorts>.port-0>.port-body": {
                                "port": {
                                    "id": "out-1",
                                    "type": "out"
                                }
                            },
                            "g.delete": {
                                "display": "none"
                            },
                            "g.error": {
                                "opacity": 0
                            },
                            "g.notes": {
                                "display": "block"
                            }
                        },
                        "block_code": "def destinationAddress_check(action=None, success=None, container=None, results=None, handle=None, filtered_artifacts=None, filtered_results=None):\n    phantom.debug('destinationAddress_check() called')\n\n    # collect filtered artifact ids for 'if' condition 1\n    matched_artifacts_1, matched_results_1 = phantom.condition(\n        container=container,\n        conditions=[\n            [\"artifact:*.cef.destinationAddress\", \"!=\", \"\"],\n        ],\n        name=\"destinationAddress_check:condition_1\")\n\n    # call connected blocks if filtered artifacts or results\n    if matched_artifacts_1 or matched_results_1:\n        geolocate_ip_1(action=action, success=success, container=container, results=results, handle=handle, filtered_artifacts=matched_artifacts_1, filtered_results=matched_results_1)\n\n    return",
                        "callback_code": "",
                        "callback_start": 1,
                        "callsback": false,
                        "connected_to_start": true,
                        "connection_name": "",
                        "connection_type": "",
                        "custom_callback": "",
                        "custom_code": "",
                        "custom_join": "",
                        "custom_name": "destinationAddress check",
                        "description": "",
                        "has_custom": false,
                        "has_custom_block": false,
                        "has_custom_callback": false,
                        "has_custom_join": false,
                        "id": "b6079113-23d4-4dbd-9283-3f7d6909ae27",
                        "inPorts": [
                            "in"
                        ],
                        "join_code": "",
                        "join_optional": [],
                        "join_start": 1,
                        "line_end": 33,
                        "line_start": 16,
                        "name": "filter",
                        "notes": "",
                        "number": 1,
                        "order": 2,
                        "outPorts": [
                            "out-1"
                        ],
                        "outputs": [
                            {
                                "conditions": [
                                    {
                                        "comparison": "!=",
                                        "data_type": "",
                                        "param": "artifact:*.cef.destinationAddress",
                                        "value": ""
                                    }
                                ],
                                "display": "If",
                                "logic": "and",
                                "type": "if"
                            }
                        ],
                        "ports": {
                            "groups": {
                                "in": {
                                    "attrs": {
                                        ".port-body": {
                                            "fill": "#fff",
                                            "magnet": true,
                                            "r": 10,
                                            "stroke": "#000"
                                        },
                                        ".port-label": {
                                            "fill": "#000"
                                        }
                                    },
                                    "label": {
                                        "position": {
                                            "args": {
                                                "y": 10
                                            },
                                            "name": "left"
                                        }
                                    },
                                    "position": {
                                        "name": "left"
                                    }
                                },
                                "out": {
                                    "attrs": {
                                        ".port-body": {
                                            "fill": "#fff",
                                            "magnet": true,
                                            "r": 10,
                                            "stroke": "#000"
                                        },
                                        ".port-label": {
                                            "fill": "#000"
                                        }
                                    },
                                    "label": {
                                        "position": {
                                            "args": {
                                                "y": 10
                                            },
                                            "name": "right"
                                        }
                                    },
                                    "position": {
                                        "name": "right"
                                    }
                                }
                            }
                        },
                        "position": {
                            "x": 260,
                            "y": 80
                        },
                        "previous_function": "",
                        "previous_name": "destinationAddress_check",
                        "show_number": true,
                        "size": {
                            "height": 82,
                            "width": 82
                        },
                        "state": "filter",
                        "status": "",
                        "type": "coa.Filter",
                        "warn": "",
                        "z": 11
                    }
                ]
            },
            "notes": ""
        },
        "schema": 3,
        "version": "4.1.94"
    },
    "create_time": "2018-10-25T05:33:19.880281+00:00",
    "draft_mode": false,
    "labels": [
        "event"
    ]
}